\boolfalse {citerequest}\boolfalse {citetracker}\boolfalse {pagetracker}\boolfalse {backtracker}\relax 
\defcounter {refsection}{0}\relax 
\contentsline {section}{\numberline {1}Uveden\IeC {\'\i } do problematiky}{2}{section.1}
\defcounter {refsection}{0}\relax 
\contentsline {section}{\numberline {2}N\IeC {\'a}vrh aplikace}{2}{section.2}
\defcounter {refsection}{0}\relax 
\contentsline {subsection}{\numberline {2.1}Form\IeC {\'a}t Libpcap}{2}{subsection.2.1}
\defcounter {refsection}{0}\relax 
\contentsline {subsection}{\numberline {2.2}Anal\IeC {\'y}za obsahu paket\IeC {\r u}}{2}{subsection.2.2}
\defcounter {refsection}{0}\relax 
\contentsline {subsection}{\numberline {2.3}V\IeC {\'y}stup}{3}{subsection.2.3}
\defcounter {refsection}{0}\relax 
\contentsline {section}{\numberline {3}Popis implementace}{3}{section.3}
\defcounter {refsection}{0}\relax 
\contentsline {subsection}{\numberline {3.1}Anal\IeC {\'y}ze vstupn\IeC {\'\i }ho souboru}{3}{subsection.3.1}
\defcounter {refsection}{0}\relax 
\contentsline {subsection}{\numberline {3.2}Zpracov\IeC {\'a}n\IeC {\'\i } dat}{3}{subsection.3.2}
\defcounter {refsection}{0}\relax 
\contentsline {subsection}{\numberline {3.3}Roz\IeC {\v s}\IeC {\'\i }\IeC {\v r}en\IeC {\'\i }}{3}{subsection.3.3}
\defcounter {refsection}{0}\relax 
\contentsline {section}{\numberline {4}N\IeC {\'a}vod pou\IeC {\v z}it\IeC {\'\i }}{3}{section.4}
